{
    "editor.fontFamily": "'JetBrains Mono', 'Font Awesome 6 Free Solid'",
    "editor.fontSize": 15,
    "editor.fontLigatures": true,
    "editor.minimap.enabled": false,
    "editor.formatOnSave": false,
    "editor.formatOnPaste": false,
    "editor.renderWhitespace": "trailing",
    "editor.linkedEditing": true,
    "editor.occurrencesHighlight": "off",
    "editor.suggest.insertMode": "replace",
    "editor.acceptSuggestionOnCommitCharacter": false,
    "editor.lineHeight": 21,
    "emmet.triggerExpansionOnTab": true,

    "explorer.autoReveal": false,
    "explorer.confirmDragAndDrop": false,
    "explorer.confirmDelete": false,

    "files.autoSave": "onFocusChange",
    "files.defaultLanguage": "markdown",

    "git.confirmSync": false,
    "git.enableSmartCommit": true,

    "workbench.colorTheme": "Tokyo Night",
    "workbench.startupEditor": "none",
    "workbench.tree.indent": 15,
    "workbench.tree.renderIndentGuides": "always",
    "workbench.editor.enablePreview": false,
    "workbench.iconTheme": "material-icon-theme",
    "workbench.colorCustomizations": {
        "[Tokyo Night]": {
            "editor.selectionBackground": "#3D59A1",
            "editor.selectionHighlightBackground": "#3D59A1"
        }
    }
}